<svg width="24" height="19" viewBox="0 0 24 19" fill="none" xmlns="http://www.w3.org/2000/svg">
<path d="M7.41 12.4102L12 7.83016L16.59 12.4102L18 11.0002L12 5.00016L6 11.0002L7.41 12.4102Z" fill="white"/>
</svg>
