<svg width="33" height="32" viewBox="0 0 33 32" fill="none" xmlns="http://www.w3.org/2000/svg">
<path d="M16.5 3.20007C13.9539 3.20007 11.5121 4.2115 9.71173 6.01185C7.91138 7.8122 6.89995 10.254 6.89995 12.8001V18.5377L5.76875 19.6689C5.54506 19.8926 5.39273 20.1777 5.33102 20.488C5.26931 20.7983 5.301 21.12 5.42207 21.4123C5.54314 21.7046 5.74816 21.9545 6.01122 22.1303C6.27427 22.3061 6.58355 22.4 6.89995 22.4001H26.1C26.4164 22.4 26.7256 22.3061 26.9887 22.1303C27.2517 21.9545 27.4568 21.7046 27.5778 21.4123C27.6989 21.12 27.7306 20.7983 27.6689 20.488C27.6072 20.1777 27.4548 19.8926 27.2312 19.6689L26.1 18.5377V12.8001C26.1 10.254 25.0885 7.8122 23.2882 6.01185C21.4878 4.2115 19.046 3.20007 16.5 3.20007ZM16.5 28.8001C15.2269 28.8001 14.006 28.2944 13.1058 27.3942C12.2057 26.494 11.7 25.2731 11.7 24.0001H21.3C21.3 25.2731 20.7942 26.494 19.8941 27.3942C18.9939 28.2944 17.773 28.8001 16.5 28.8001Z" fill="white"/>
</svg>
