<svg width="32" height="32" viewBox="0 0 32 32" fill="none" xmlns="http://www.w3.org/2000/svg">
<path d="M5.33301 10.6668H10.6663V5.3335H5.33301V10.6668ZM13.333 26.6668H18.6663V21.3335H13.333V26.6668ZM5.33301 26.6668H10.6663V21.3335H5.33301V26.6668ZM5.33301 18.6668H10.6663V13.3335H5.33301V18.6668ZM13.333 18.6668H18.6663V13.3335H13.333V18.6668ZM21.333 5.3335V10.6668H26.6663V5.3335H21.333ZM13.333 10.6668H18.6663V5.3335H13.333V10.6668ZM21.333 18.6668H26.6663V13.3335H21.333V18.6668ZM21.333 26.6668H26.6663V21.3335H21.333V26.6668Z" fill="white" fill-opacity="0.48"/>
</svg>
